<?xml version="1.0" encoding="utf-8"?>
<!-- Generator: Adobe Illustrator 16.0.0, SVG Export Plug-In . SVG Version: 6.00 Build 0)  -->
<!DOCTYPE svg PUBLIC "-//W3C//DTD SVG 1.1//EN" "http://www.w3.org/Graphics/SVG/1.1/DTD/svg11.dtd">
<svg version="1.1" id="Layer_1" xmlns="http://www.w3.org/2000/svg" xmlns:xlink="http://www.w3.org/1999/xlink" x="0px" y="0px"
	 width="205.589px" height="199.553px" viewBox="0 0 205.589 199.553" enable-background="new 0 0 205.589 199.553"
	 xml:space="preserve">
<g>
	<path fill-rule="evenodd" clip-rule="evenodd" fill="#FFFFFF" d="M101.621,182.264c-4.827,0-9.294,0.001-13.761,0
		c-26.983-0.01-53.968-0.022-80.952-0.024c-3.75,0-6.704-2.494-6.776-6.243c-0.153-7.925-0.182-15.856-0.041-23.782
		c0.056-3.165,2.271-4.993,5.057-6.163c6.517-2.738,13.127-5.279,19.515-8.293c13.494-6.365,26.947-12.851,38.583-22.426
		c1.231-1.013,2.281-2.243,3.47-3.312c2.66-2.385,2.13-5.514,1.997-8.528c-0.019-0.448-0.487-0.919-0.831-1.305
		c-5.721-6.418-9.594-13.837-12.132-22.016c-0.342-1.102-1.05-2.211-1.875-3.023c-5.644-5.55-6.569-12.831-2.463-19.55
		c0.477-0.78,0.735-1.811,0.757-2.733c0.189-8.148-0.144-16.335,0.535-24.439C54.031,14.574,64.244,3.82,79.96,1.078
		c9.653-1.684,19.259-1.569,28.645,1.595c12.067,4.068,19.207,12.619,20.728,25.081c1.028,8.42,0.523,17.022,0.86,25.537
		c0.068,1.728,0.524,3.592,1.33,5.115c3.502,6.616,2.362,13.909-3.102,18.962c-0.681,0.63-1.177,1.535-1.562,2.399
		c-2.068,4.646-3.843,9.442-6.196,13.935c-1.264,2.415-3.227,4.63-5.316,6.42c-17.361,14.892-25.126,33.656-22.815,56.41
		c0.871,8.567,3.812,16.567,8.156,24.025C100.944,180.996,101.177,181.449,101.621,182.264z"/>
	<path fill-rule="evenodd" clip-rule="evenodd" fill="#FFFFFF" d="M205.584,149.846c0.166,26.689-22.101,50.854-52.025,49.665
		c-26.322-1.046-48.754-22.781-47.688-51.905c1.007-27.548,23.918-48.351,50.869-47.821
		C183.869,100.316,205.947,122.796,205.584,149.846z M161.549,143.808c0-1.135,0.004-1.963,0-2.791
		c-0.02-4.573,0.045-9.147-0.09-13.717c-0.103-3.478-2.562-5.756-5.857-5.725c-3.245,0.029-5.574,2.479-5.588,5.951
		c-0.015,3.579,0.03,7.161,0.043,10.742c0.007,1.798,0.001,3.596,0.001,5.539c-1.091,0-1.771-0.001-2.45,0
		c-4.496,0.004-8.991,0.003-13.485,0.015c-3.796,0.01-6.412,2.293-6.469,5.628c-0.06,3.521,2.206,5.761,6.116,5.844
		c4.722,0.103,9.448,0.146,14.169,0.066c1.767-0.03,2.184,0.608,2.146,2.269c-0.113,4.799-0.141,9.603-0.048,14.399
		c0.079,4.032,3.711,6.59,7.422,5.389c2.615-0.847,4.061-3.071,4.082-6.455c0.032-5.097,0.008-10.194,0.008-15.564
		c1.03,0,1.924,0.006,2.818-0.001c4.798-0.044,9.602,0.035,14.392-0.185c2.82-0.13,4.588-2.154,5.017-5.058
		c0.353-2.389-1.046-4.829-3.539-5.759c-1.109-0.414-2.375-0.548-3.572-0.562C171.726,143.773,166.786,143.808,161.549,143.808z"/>
</g>
</svg>
